Estadística – Rstudio Scripts
…
    .groups = "drop"
  )%>%
  mutate(                  #per afegir columna de * significació, es pot treure
    signif = case_when(
      is.na(p_value)        ~ "ns",
      p_value < 0.001       ~ "***",
      p_value < 0.01        ~ "**",
      p_value < 0.05        ~ "*",
      p_value < 0.1  ~ "·",
      TRUE                  ~ "ns"
    )) # A R la significació es veu més neta

shapiro_by_group

# A tibble: 64 × 7
   generation group gene      df     W p_value signif
   <fct>      <fct> <fct>  <int> <dbl>   <dbl> <chr> 
 1 M          REF   gene_1     6 0.853  0.165  ns    
 2 M          REF   gene_2     6 0.924  0.534  ns    
 3 M          REF   gene_3     5 0.915  0.498  ns    
 4 M          REF   gene_4     5 0.970  0.876  ns    
 5 M          P     gene_1     5 0.738  0.0228 *     
 6 M          P     gene_2     5 0.735  0.0215 *     
 7 M          P     gene_3     6 0.978  0.941  ns    
 8 M          P     gene_4     6 0.856  0.175  ns    
 9 M          G     gene_1     5 0.858  0.222  ns    
10 M          G     gene_2     5 0.970  0.876  ns    
# ℹ 54 more rows
…
levene_long

# A tibble: 32 × 8
   generation gene   method               F   df1   df2 p.value signif
   <fct>      <fct>  <chr>            <dbl> <int> <int>   <dbl> <chr> 
 1 M          gene_1 Based on Mean   2.54       4    22  0.0686 ·     
 2 M          gene_1 Based on Median 1.52       4    22  0.232  ns    
 3 M          gene_2 Based on Mean   0.0455     4    22  0.996  ns    
 4 M          gene_2 Based on Median 0.0161     4    22  0.999  ns    
 5 M          gene_3 Based on Mean   0.638      4    23  0.641  ns    
 6 M          gene_3 Based on Median 0.576      4    23  0.683  ns    
 7 M          gene_4 Based on Mean   0.395      4    22  0.810  ns    
 8 M          gene_4 Based on Median 0.330      4    22  0.855  ns    
 9 Cd1        gene_1 Based on Mean   0.235      3    33  0.871  ns    
10 Cd1        gene_1 Based on Median 0.207      3    33  0.891  ns    
# ℹ 22 more rows
…
results_anova

# A tibble: 36 × 9
   generation gene   term         df  sumsq meansq statistic  p.value signif
   <fct>      <fct>  <chr>     <dbl>  <dbl>  <dbl>     <dbl>    <dbl> <chr> 
 1 M          gene_1 group         4 17584.  4396.      30.8  1.01e-8 ***   
 2 M          gene_1 Residuals    22  3144.   143.      NA   NA       ns    
 3 <NA>       gene_1 Total        26 20728.    NA       NA   NA       ns    
 4 M          gene_2 group         4 24297.  6074.      34.8  3.23e-9 ***   
 5 M          gene_2 Residuals    22  3843.   175.      NA   NA       ns    
 6 <NA>       gene_2 Total        26 28140.    NA       NA   NA       ns    
 7 M          gene_3 group         4 21158.  5290.      28.5  1.29e-8 ***   
 8 M          gene_3 Residuals    23  4266.   185.      NA   NA       ns    
 9 <NA>       gene_3 Total        27 25425.    NA       NA   NA       ns    
10 M          gene_4 group         4 16595.  4149.      20.0  4.52e-7 ***   
# ℹ 26 more rows
…
posthoc_results

# A tibble: 104 × 11
# Groups:   generation, gene [12]
   generation gene   contrast  estimate    SE    df lower.CL upper.CL t.ratio
   <fct>      <fct>  <chr>        <dbl> <dbl> <dbl>    <dbl>    <dbl>   <dbl>
 1 M          gene_1 REF - P     -26.3   7.24    22   -48.8    -3.69    -3.63
 2 M          gene_1 REF - G      24.4   7.24    22     1.81   47.0      3.37
 3 M          gene_1 REF - S       9.55  6.90    22   -12.0    31.1      1.38
 4 M          gene_1 REF - PGS   -49.1   7.24    22   -71.7   -26.5     -6.78
 5 M          gene_1 P - G        50.7   7.56    22    27.1    74.2      6.70
 6 M          gene_1 P - S        35.8   7.24    22    13.2    58.4      4.95
 7 M          gene_1 P - PGS     -22.8   7.56    22   -46.4     0.741   -3.02
 8 M          gene_1 G - S       -14.8   7.24    22   -37.4     7.74    -2.05
 9 M          gene_1 G - PGS     -73.5   7.56    22   -97.1   -49.9     -9.72
10 M          gene_1 S - PGS     -58.7   7.24    22   -81.2   -36.1     -8.10
# ℹ 94 more rows
# ℹ 2 more variables: p.value <dbl>, signif <chr>
…
Post-hoc Games-Howell

En el cas de dades normals però no homogènies, amb l’SPSS faríem Dunnet T3. En R no existeix així que es fa el Games-Howell.

library(rstatix)
posthoc_gameshowell <- longdata %>%
  filter(generation == "M") %>%
  group_by(gene) %>%
  games_howell_test(value ~ group)

posthoc_gameshowell

# A tibble: 40 × 9
   gene   .y.   group1 group2 estimate conf.low conf.high     p.adj p.adj.signif
 * <fct>  <chr> <chr>  <chr>     <dbl>    <dbl>     <dbl>     <dbl> <chr>       
 1 gene_1 value REF    P         26.3      8.52     44.0  0.007     **          
 2 gene_1 value REF    G        -24.4    -54.3       5.55 0.105     ns          
 3 gene_1 value REF    S         -9.55   -36.1      17.0  0.697     ns          
 4 gene_1 value REF    PGS       49.1     34.9      63.4  0.0000101 ****        
 5 gene_1 value P      G        -50.7    -80.7     -20.6  0.004     **          
 6 gene_1 value P      S        -35.8    -63.1      -8.50 0.012     *           
 7 gene_1 value P      PGS       22.8      4.58     41.1  0.017     *           
 8 gene_1 value G      S         14.8    -18.2      47.9  0.578     ns          
 9 gene_1 value G      PGS       73.5     43.6     103.   0.000744  ***         
10 gene_1 value S      PGS       58.7     32.0      85.3  0.00066   ***         
# ℹ 30 more rows
…
Post-hoc Dunn amb correcció de Bonferroni

Quan les dades no siguin ni normals ni homogènies, es fa el test post-hoc de Dunn amb la correcció de Bonferroni.

posthoc_dunn <- longdata %>%
  filter(generation == "M") %>%
  mutate(gene_name = gene) %>%
  group_by(gene_name) %>%
  dunn_test(
    value ~ group,
    p.adjust.method = "bonferroni")

posthoc_dunn

# A tibble: 40 × 10
   gene_name .y.   group1 group2    n1    n2 statistic         p    p.adj
 * <fct>     <chr> <chr>  <chr>  <int> <int>     <dbl>     <dbl>    <dbl>
 1 gene_1    value REF    P          6     5     1.46  0.145     1       
 2 gene_1    value REF    G          6     5    -1.75  0.0803    0.803   
 3 gene_1    value REF    S          6     6    -0.946 0.344     1       
 4 gene_1    value REF    PGS        6     5     2.50  0.0125    0.125   
 5 gene_1    value P      G          5     5    -3.07  0.00214   0.0214  
 6 gene_1    value P      S          5     6    -2.36  0.0183    0.183   
 7 gene_1    value P      PGS        5     5     0.997 0.319     1       
 8 gene_1    value G      S          5     6     0.847 0.397     1       
 9 gene_1    value G      PGS        5     5     4.07  0.0000476 0.000476
10 gene_1    value S      PGS        6     5     3.40  0.000672  0.00672 
# ℹ 30 more rows
# ℹ 1 more variable: p.adj.signif <chr>
…
