Gràfics – Rstudio Scripts
…
Fem el post-hoc Dunn. Important que el nom de les columnes sigui igual al del dataset del gràfic (per exemple: gene).

posthoc_dunn <- longdata %>%
  group_by(gene) %>%
  dunn_test(
    value ~ generation,
    p.adjust.method = "bonferroni")%>%
  add_significance("p.adj")

posthoc_dunn

# A tibble: 24 × 10
   gene   .y.   group1 group2    n1    n2 statistic        p    p.adj
   <fct>  <chr> <chr>  <chr>  <int> <int>     <dbl>    <dbl>    <dbl>
 1 gene_1 value M      Cd1       25    40      3.17 1.51e- 3 9.07e- 3
 2 gene_1 value M      Cd21      25    50     -3.72 2.01e- 4 1.21e- 3
 3 gene_1 value M      CA        25    20      4.30 1.69e- 5 1.01e- 4
 4 gene_1 value Cd1    Cd21      40    50     -8.11 5.25e-16 3.15e-15
 5 gene_1 value Cd1    CA        40    20      1.76 7.85e- 2 4.71e- 1
 6 gene_1 value Cd21   CA        50    20      8.32 8.77e-17 5.26e-16
 7 gene_2 value M      Cd1       25    40      3.98 6.87e- 5 4.12e- 4
 8 gene_2 value M      Cd21      25    50     -3.02 2.53e- 3 1.52e- 2
 9 gene_2 value M      CA        25    20      4.72 2.31e- 6 1.39e- 5
10 gene_2 value Cd1    Cd21      40    50     -8.27 1.33e-16 7.96e-16
# ℹ 14 more rows
# ℹ 1 more variable: p.adj.signif <chr>
…
